# this contains the instruction set
# instruction name, expected length, explanation or comment
END_MESSAGE, 0, indicator for the end of message
ECHO, 1, send one byte and the byte will be echoed back
SET_SPEED_RAW, 6, set the raw speed for all 6 thrusters
SET_IMU_REPORT, 1, send 1 to enable IMU reading report and send 0 to disable report
SET_SPEED_REPORT, 1, send 1 to enable raw thruster speed reading report and send 0 to disable report
CONTROLLER_INPUT, 5, no idea what it is supposed to do yet